Suite/Test/Step Name,Browser,Description,Tag,Start time,End time,Duration,Status
TC02 - DataDrivenTesting,Chrome 115.0.0.0,,,2023-08-01 15:10:40,2023-08-01 15:11:05,24.402s,PASSED
,,,,,,,
Test Cases/S01 - Upload File/TC02 - Data Driven Testing,Chrome 115.0.0.0,,,2023-08-01 15:10:41,2023-08-01 15:10:52,10.498s,PASSED
"openBrowser("""")",Chrome 115.0.0.0,,,2023-08-01 15:10:42,2023-08-01 15:10:47,5.031s,PASSED
"navigateToUrl(""http://the-internet.herokuapp.com/upload"")",Chrome 115.0.0.0,,,2023-08-01 15:10:47,2023-08-01 15:10:50,2.680s,PASSED
"uploadFile(findTestObject(""FileUpload/Page_The Internet/input_File Uploader_file""), dataFiles)",Chrome 115.0.0.0,,,2023-08-01 15:10:50,2023-08-01 15:10:50,0.679s,PASSED
"click(findTestObject(""FileUpload/Page_The Internet/input_File Uploader_file-submit""))",Chrome 115.0.0.0,,,2023-08-01 15:10:50,2023-08-01 15:10:52,1.188s,PASSED
,,,,,,,
Test Cases/S01 - Upload File/TC02 - Data Driven Testing,Chrome 115.0.0.0,,,2023-08-01 15:10:52,2023-08-01 15:10:58,6.717s,PASSED
"openBrowser("""")",Chrome 115.0.0.0,,,2023-08-01 15:10:52,2023-08-01 15:10:54,2.404s,PASSED
"navigateToUrl(""http://the-internet.herokuapp.com/upload"")",Chrome 115.0.0.0,,,2023-08-01 15:10:54,2023-08-01 15:10:57,2.665s,PASSED
"uploadFile(findTestObject(""FileUpload/Page_The Internet/input_File Uploader_file""), dataFiles)",Chrome 115.0.0.0,,,2023-08-01 15:10:57,2023-08-01 15:10:57,0.481s,PASSED
"click(findTestObject(""FileUpload/Page_The Internet/input_File Uploader_file-submit""))",Chrome 115.0.0.0,,,2023-08-01 15:10:57,2023-08-01 15:10:58,1.141s,PASSED
,,,,,,,
Test Cases/S01 - Upload File/TC02 - Data Driven Testing,Chrome 115.0.0.0,,,2023-08-01 15:10:58,2023-08-01 15:11:05,6.335s,PASSED
"openBrowser("""")",Chrome 115.0.0.0,,,2023-08-01 15:10:58,2023-08-01 15:11:01,2.298s,PASSED
"navigateToUrl(""http://the-internet.herokuapp.com/upload"")",Chrome 115.0.0.0,,,2023-08-01 15:11:01,2023-08-01 15:11:03,2.705s,PASSED
"uploadFile(findTestObject(""FileUpload/Page_The Internet/input_File Uploader_file""), dataFiles)",Chrome 115.0.0.0,,,2023-08-01 15:11:03,2023-08-01 15:11:04,0.480s,PASSED
"click(findTestObject(""FileUpload/Page_The Internet/input_File Uploader_file-submit""))",Chrome 115.0.0.0,,,2023-08-01 15:11:04,2023-08-01 15:11:05,0.834s,PASSED
